{
  "results": [
    {
      "venue": {
        "country": "fr",
        "localized_country_name": "France",
        "city": "Paris",
        "address_1": "86 rue de Charonne, 75011 Paris",
        "name": "Le Reset",
        "lon": 2.381123,
        "id": 19795162,
        "lat": 48.853733,
        "repinned": false
      },
      "created": 1461812765000,
      "response": "yes",
      "guests": 0,
      "member": {
        "member_id": 83937722,
        "name": "Antoine REYT"
      },
      "rsvp_id": 1607293441,
      "mtime": 1461812765000,
      "event": {
        "name": "Elm Paris #2",
        "id": "229812335",
        "time": 1462381200000,
        "event_url": "http://www.meetup.com/Meetup-Elm-Paris/events/229812335/"
      },
      "group": {
        "join_mode": "open",
        "created": 1462361786562,
        "group_lon": 2.3399999141693115,
        "id": 19539779,
        "urlname": "Meetup-Elm-Paris",
        "group_lat": 48.86000061035156
      }
    },
    {
      "venue": {
        "country": "fr",
        "localized_country_name": "France",
        "city": "Paris",
        "address_1": "86 rue de Charonne, 75011 Paris",
        "name": "Le Reset",
        "lon": 2.381123,
        "id": 19795162,
        "lat": 48.853733,
        "repinned": false
      },
      "created": 1458802591000,
      "response": "yes",
      "member_photo": {
        "highres_link": "http://photos1.meetupstatic.com/photos/member/7/f/a/1/highres_251552673.jpeg",
        "photo_id": 251552673,
        "photo_link": "http://photos3.meetupstatic.com/photos/member/7/f/a/1/member_251552673.jpeg",
        "thumb_link": "http://photos1.meetupstatic.com/photos/member/7/f/a/1/thumb_251552673.jpeg"
      },
      "guests": 0,
      "member": {
        "member_id": 195834421,
        "name": "Sébastien Crème"
      },
      "rsvp_id": 1601356034,
      "mtime": 1458802591000,
      "event": {
        "name": "Elm Paris #2",
        "id": "229812335",
        "time": 1462381200000,
        "event_url": "http://www.meetup.com/Meetup-Elm-Paris/events/229812335/"
      },
      "group": {
        "join_mode": "open",
        "created": 1462361786562,
        "group_lon": 2.3399999141693115,
        "id": 19539779,
        "urlname": "Meetup-Elm-Paris",
        "group_lat": 48.86000061035156
      }
    },
    {
      "venue": {
        "country": "fr",
        "localized_country_name": "France",
        "city": "Paris",
        "address_1": "86 rue de Charonne, 75011 Paris",
        "name": "Le Reset",
        "lon": 2.381123,
        "id": 19795162,
        "lat": 48.853733,
        "repinned": false
      },
      "created": 1460649693000,
      "response": "yes",
      "member_photo": {
        "highres_link": "http://photos3.meetupstatic.com/photos/member/1/f/c/7/highres_254648135.jpeg",
        "photo_id": 254648135,
        "photo_link": "http://photos1.meetupstatic.com/photos/member/1/f/c/7/member_254648135.jpeg",
        "thumb_link": "http://photos3.meetupstatic.com/photos/member/1/f/c/7/thumb_254648135.jpeg"
      },
      "guests": 0,
      "member": {
        "member_id": 99653382,
        "name": "Cyril Wack"
      },
      "rsvp_id": 1605031683,
      "mtime": 1460649693000,
      "event": {
        "name": "Elm Paris #2",
        "id": "229812335",
        "time": 1462381200000,
        "event_url": "http://www.meetup.com/Meetup-Elm-Paris/events/229812335/"
      },
      "group": {
        "join_mode": "open",
        "created": 1462361786562,
        "group_lon": 2.3399999141693115,
        "id": 19539779,
        "urlname": "Meetup-Elm-Paris",
        "group_lat": 48.86000061035156
      }
    },
    {
      "venue": {
        "country": "fr",
        "localized_country_name": "France",
        "city": "Paris",
        "address_1": "86 rue de Charonne, 75011 Paris",
        "name": "Le Reset",
        "lon": 2.381123,
        "id": 19795162,
        "lat": 48.853733,
        "repinned": false
      },
      "created": 1458759765000,
      "response": "no",
      "member_photo": {
        "highres_link": "http://photos1.meetupstatic.com/photos/member/d/d/0/6/highres_237956582.jpeg",
        "photo_id": 237956582,
        "photo_link": "http://photos1.meetupstatic.com/photos/member/d/d/0/6/member_237956582.jpeg",
        "thumb_link": "http://photos1.meetupstatic.com/photos/member/d/d/0/6/thumb_237956582.jpeg"
      },
      "guests": 0,
      "member": {
        "member_id": 93831482,
        "name": "Cédric M."
      },
      "rsvp_id": 1601263109,
      "mtime": 1461981159000,
      "event": {
        "name": "Elm Paris #2",
        "id": "229812335",
        "time": 1462381200000,
        "event_url": "http://www.meetup.com/Meetup-Elm-Paris/events/229812335/"
      },
      "group": {
        "join_mode": "open",
        "created": 1462361786562,
        "group_lon": 2.3399999141693115,
        "id": 19539779,
        "urlname": "Meetup-Elm-Paris",
        "group_lat": 48.86000061035156
      }
    },
    {
      "venue": {
        "country": "fr",
        "localized_country_name": "France",
        "city": "Paris",
        "address_1": "86 rue de Charonne, 75011 Paris",
        "name": "Le Reset",
        "lon": 2.381123,
        "id": 19795162,
        "lat": 48.853733,
        "repinned": false
      },
      "created": 1462193010000,
      "response": "yes",
      "member_photo": {
        "highres_link": "http://photos4.meetupstatic.com/photos/member/7/b/c/3/highres_245911683.jpeg",
        "photo_id": 245911683,
        "photo_link": "http://photos2.meetupstatic.com/photos/member/7/b/c/3/member_245911683.jpeg",
        "thumb_link": "http://photos2.meetupstatic.com/photos/member/7/b/c/3/thumb_245911683.jpeg"
      },
      "guests": 0,
      "member": {
        "member_id": 183393336,
        "name": "Arnaud Lenglet"
      },
      "rsvp_id": 1607963401,
      "mtime": 1462193010000,
      "event": {
        "name": "Elm Paris #2",
        "id": "229812335",
        "time": 1462381200000,
        "event_url": "http://www.meetup.com/Meetup-Elm-Paris/events/229812335/"
      },
      "group": {
        "join_mode": "open",
        "created": 1462361786562,
        "group_lon": 2.3399999141693115,
        "id": 19539779,
        "urlname": "Meetup-Elm-Paris",
        "group_lat": 48.86000061035156
      }
    },
    {
      "venue": {
        "country": "fr",
        "localized_country_name": "France",
        "city": "Paris",
        "address_1": "86 rue de Charonne, 75011 Paris",
        "name": "Le Reset",
        "lon": 2.381123,
        "id": 19795162,
        "lat": 48.853733,
        "repinned": false
      },
      "created": 1461487369000,
      "response": "yes",
      "guests": 0,
      "member": {
        "member_id": 140516362,
        "name": "Cédric Finance"
      },
      "rsvp_id": 1606613513,
      "mtime": 1461487369000,
      "event": {
        "name": "Elm Paris #2",
        "id": "229812335",
        "time": 1462381200000,
        "event_url": "http://www.meetup.com/Meetup-Elm-Paris/events/229812335/"
      },
      "group": {
        "join_mode": "open",
        "created": 1462361786562,
        "group_lon": 2.3399999141693115,
        "id": 19539779,
        "urlname": "Meetup-Elm-Paris",
        "group_lat": 48.86000061035156
      }
    },
    {
      "venue": {
        "country": "fr",
        "localized_country_name": "France",
        "city": "Paris",
        "address_1": "86 rue de Charonne, 75011 Paris",
        "name": "Le Reset",
        "lon": 2.381123,
        "id": 19795162,
        "lat": 48.853733,
        "repinned": false
      },
      "created": 1462344487000,
      "response": "yes",
      "member_photo": {
        "highres_link": "http://photos1.meetupstatic.com/photos/member/7/9/b/9/highres_252511161.jpeg",
        "photo_id": 252511161,
        "photo_link": "http://photos3.meetupstatic.com/photos/member/7/9/b/9/member_252511161.jpeg",
        "thumb_link": "http://photos1.meetupstatic.com/photos/member/7/9/b/9/thumb_252511161.jpeg"
      },
      "guests": 0,
      "member": {
        "member_id": 193397332,
        "name": "Yann Basly"
      },
      "rsvp_id": 1608317962,
      "mtime": 1462344487000,
      "event": {
        "name": "Elm Paris #2",
        "id": "229812335",
        "time": 1462381200000,
        "event_url": "http://www.meetup.com/Meetup-Elm-Paris/events/229812335/"
      },
      "group": {
        "join_mode": "open",
        "created": 1462361786562,
        "group_lon": 2.3399999141693115,
        "id": 19539779,
        "urlname": "Meetup-Elm-Paris",
        "group_lat": 48.86000061035156
      }
    },
    {
      "venue": {
        "country": "fr",
        "localized_country_name": "France",
        "city": "Paris",
        "address_1": "86 rue de Charonne, 75011 Paris",
        "name": "Le Reset",
        "lon": 2.381123,
        "id": 19795162,
        "lat": 48.853733,
        "repinned": false
      },
      "created": 1458761910000,
      "response": "yes",
      "guests": 0,
      "member": {
        "member_id": 65598572,
        "name": "Valentin Kasas"
      },
      "rsvp_id": 1601269003,
      "mtime": 1458761910000,
      "event": {
        "name": "Elm Paris #2",
        "id": "229812335",
        "time": 1462381200000,
        "event_url": "http://www.meetup.com/Meetup-Elm-Paris/events/229812335/"
      },
      "group": {
        "join_mode": "open",
        "created": 1462361786562,
        "group_lon": 2.3399999141693115,
        "id": 19539779,
        "urlname": "Meetup-Elm-Paris",
        "group_lat": 48.86000061035156
      }
    },
    {
      "venue": {
        "country": "fr",
        "localized_country_name": "France",
        "city": "Paris",
        "address_1": "86 rue de Charonne, 75011 Paris",
        "name": "Le Reset",
        "lon": 2.381123,
        "id": 19795162,
        "lat": 48.853733,
        "repinned": false
      },
      "created": 1458802926000,
      "response": "yes",
      "member_photo": {
        "photo_id": 18284531,
        "photo_link": "http://photos4.meetupstatic.com/photos/member/a/d/f/3/member_18284531.jpeg",
        "thumb_link": "http://photos2.meetupstatic.com/photos/member/a/d/f/3/thumb_18284531.jpeg"
      },
      "guests": 0,
      "member": {
        "member_id": 19827951,
        "name": "Dorian Lupu"
      },
      "rsvp_id": 1601356303,
      "mtime": 1458802926000,
      "event": {
        "name": "Elm Paris #2",
        "id": "229812335",
        "time": 1462381200000,
        "event_url": "http://www.meetup.com/Meetup-Elm-Paris/events/229812335/"
      },
      "group": {
        "join_mode": "open",
        "created": 1462361786562,
        "group_lon": 2.3399999141693115,
        "id": 19539779,
        "urlname": "Meetup-Elm-Paris",
        "group_lat": 48.86000061035156
      }
    },
    {
      "venue": {
        "country": "fr",
        "localized_country_name": "France",
        "city": "Paris",
        "address_1": "86 rue de Charonne, 75011 Paris",
        "name": "Le Reset",
        "lon": 2.381123,
        "id": 19795162,
        "lat": 48.853733,
        "repinned": false
      },
      "created": 1458815686000,
      "response": "yes",
      "member_photo": {
        "highres_link": "http://photos1.meetupstatic.com/photos/member/e/3/1/4/highres_200938132.jpeg",
        "photo_id": 200938132,
        "photo_link": "http://photos3.meetupstatic.com/photos/member/e/3/1/4/member_200938132.jpeg",
        "thumb_link": "http://photos1.meetupstatic.com/photos/member/e/3/1/4/thumb_200938132.jpeg"
      },
      "guests": 0,
      "member": {
        "member_id": 141170582,
        "name": "Clément Boudereau"
      },
      "rsvp_id": 1601368849,
      "mtime": 1458815686000,
      "event": {
        "name": "Elm Paris #2",
        "id": "229812335",
        "time": 1462381200000,
        "event_url": "http://www.meetup.com/Meetup-Elm-Paris/events/229812335/"
      },
      "group": {
        "join_mode": "open",
        "created": 1462361786562,
        "group_lon": 2.3399999141693115,
        "id": 19539779,
        "urlname": "Meetup-Elm-Paris",
        "group_lat": 48.86000061035156
      }
    },
    {
      "venue": {
        "country": "fr",
        "localized_country_name": "France",
        "city": "Paris",
        "address_1": "86 rue de Charonne, 75011 Paris",
        "name": "Le Reset",
        "lon": 2.381123,
        "id": 19795162,
        "lat": 48.853733,
        "repinned": false
      },
      "created": 1458926154000,
      "response": "no",
      "member_photo": {
        "highres_link": "http://photos3.meetupstatic.com/photos/member/2/6/7/highres_251700615.jpeg",
        "photo_id": 251700615,
        "photo_link": "http://photos3.meetupstatic.com/photos/member/2/6/7/member_251700615.jpeg",
        "thumb_link": "http://photos3.meetupstatic.com/photos/member/2/6/7/thumb_251700615.jpeg"
      },
      "guests": 0,
      "member": {
        "member_id": 120502912,
        "name": "Yannick Caillé"
      },
      "rsvp_id": 1601583891,
      "mtime": 1462282514000,
      "event": {
        "name": "Elm Paris #2",
        "id": "229812335",
        "time": 1462381200000,
        "event_url": "http://www.meetup.com/Meetup-Elm-Paris/events/229812335/"
      },
      "group": {
        "join_mode": "open",
        "created": 1462361786562,
        "group_lon": 2.3399999141693115,
        "id": 19539779,
        "urlname": "Meetup-Elm-Paris",
        "group_lat": 48.86000061035156
      }
    },
    {
      "venue": {
        "country": "fr",
        "localized_country_name": "France",
        "city": "Paris",
        "address_1": "86 rue de Charonne, 75011 Paris",
        "name": "Le Reset",
        "lon": 2.381123,
        "id": 19795162,
        "lat": 48.853733,
        "repinned": false
      },
      "created": 1459720303000,
      "response": "yes",
      "member_photo": {
        "photo_id": 32311722,
        "photo_link": "http://photos4.meetupstatic.com/photos/member/7/b/e/a/member_32311722.jpeg",
        "thumb_link": "http://photos4.meetupstatic.com/photos/member/7/b/e/a/thumb_32311722.jpeg"
      },
      "guests": 0,
      "member": {
        "member_id": 19406151,
        "name": "Paul Chavard"
      },
      "rsvp_id": 1603119379,
      "mtime": 1459720303000,
      "event": {
        "name": "Elm Paris #2",
        "id": "229812335",
        "time": 1462381200000,
        "event_url": "http://www.meetup.com/Meetup-Elm-Paris/events/229812335/"
      },
      "group": {
        "join_mode": "open",
        "created": 1462361786562,
        "group_lon": 2.3399999141693115,
        "id": 19539779,
        "urlname": "Meetup-Elm-Paris",
        "group_lat": 48.86000061035156
      }
    },
    {
      "venue": {
        "country": "fr",
        "localized_country_name": "France",
        "city": "Paris",
        "address_1": "86 rue de Charonne, 75011 Paris",
        "name": "Le Reset",
        "lon": 2.381123,
        "id": 19795162,
        "lat": 48.853733,
        "repinned": false
      },
      "created": 1458761513000,
      "response": "yes",
      "member_photo": {
        "highres_link": "http://photos4.meetupstatic.com/photos/member/b/0/3/8/highres_69765112.jpeg",
        "photo_id": 69765112,
        "photo_link": "http://photos4.meetupstatic.com/photos/member/b/0/3/8/member_69765112.jpeg",
        "thumb_link": "http://photos4.meetupstatic.com/photos/member/b/0/3/8/thumb_69765112.jpeg"
      },
      "guests": 0,
      "member": {
        "member_id": 60159022,
        "name": "Hervé Mignot"
      },
      "rsvp_id": 1601267732,
      "mtime": 1458761513000,
      "event": {
        "name": "Elm Paris #2",
        "id": "229812335",
        "time": 1462381200000,
        "event_url": "http://www.meetup.com/Meetup-Elm-Paris/events/229812335/"
      },
      "group": {
        "join_mode": "open",
        "created": 1462361786562,
        "group_lon": 2.3399999141693115,
        "id": 19539779,
        "urlname": "Meetup-Elm-Paris",
        "group_lat": 48.86000061035156
      }
    },
    {
      "venue": {
        "country": "fr",
        "localized_country_name": "France",
        "city": "Paris",
        "address_1": "86 rue de Charonne, 75011 Paris",
        "name": "Le Reset",
        "lon": 2.381123,
        "id": 19795162,
        "lat": 48.853733,
        "repinned": false
      },
      "created": 1458813422000,
      "response": "no",
      "member_photo": {
        "highres_link": "http://photos4.meetupstatic.com/photos/member/3/e/c/4/highres_251476068.jpeg",
        "photo_id": 251476068,
        "photo_link": "http://photos4.meetupstatic.com/photos/member/3/e/c/4/member_251476068.jpeg",
        "thumb_link": "http://photos2.meetupstatic.com/photos/member/3/e/c/4/thumb_251476068.jpeg"
      },
      "guests": 0,
      "member": {
        "member_id": 11995020,
        "name": "Luis Arias"
      },
      "rsvp_id": 1601366292,
      "mtime": 1458813422000,
      "event": {
        "name": "Elm Paris #2",
        "id": "229812335",
        "time": 1462381200000,
        "event_url": "http://www.meetup.com/Meetup-Elm-Paris/events/229812335/"
      },
      "group": {
        "join_mode": "open",
        "created": 1462361786562,
        "group_lon": 2.3399999141693115,
        "id": 19539779,
        "urlname": "Meetup-Elm-Paris",
        "group_lat": 48.86000061035156
      }
    },
    {
      "venue": {
        "country": "fr",
        "localized_country_name": "France",
        "city": "Paris",
        "address_1": "86 rue de Charonne, 75011 Paris",
        "name": "Le Reset",
        "lon": 2.381123,
        "id": 19795162,
        "lat": 48.853733,
        "repinned": false
      },
      "created": 1462083883000,
      "response": "yes",
      "member_photo": {
        "highres_link": "http://photos2.meetupstatic.com/photos/member/9/5/3/a/highres_227498202.jpeg",
        "photo_id": 227498202,
        "photo_link": "http://photos2.meetupstatic.com/photos/member/9/5/3/a/member_227498202.jpeg",
        "thumb_link": "http://photos2.meetupstatic.com/photos/member/9/5/3/a/thumb_227498202.jpeg"
      },
      "guests": 0,
      "member": {
        "member_id": 3355843,
        "name": "nicolas rolland"
      },
      "rsvp_id": 1607772439,
      "mtime": 1462083883000,
      "event": {
        "name": "Elm Paris #2",
        "id": "229812335",
        "time": 1462381200000,
        "event_url": "http://www.meetup.com/Meetup-Elm-Paris/events/229812335/"
      },
      "group": {
        "join_mode": "open",
        "created": 1462361786562,
        "group_lon": 2.3399999141693115,
        "id": 19539779,
        "urlname": "Meetup-Elm-Paris",
        "group_lat": 48.86000061035156
      }
    },
    {
      "venue": {
        "country": "fr",
        "localized_country_name": "France",
        "city": "Paris",
        "address_1": "86 rue de Charonne, 75011 Paris",
        "name": "Le Reset",
        "lon": 2.381123,
        "id": 19795162,
        "lat": 48.853733,
        "repinned": false
      },
      "created": 1458804869000,
      "response": "yes",
      "member_photo": {
        "highres_link": "http://photos2.meetupstatic.com/photos/member/6/8/a/3/highres_242426787.jpeg",
        "photo_id": 242426787,
        "photo_link": "http://photos4.meetupstatic.com/photos/member/6/8/a/3/member_242426787.jpeg",
        "thumb_link": "http://photos4.meetupstatic.com/photos/member/6/8/a/3/thumb_242426787.jpeg"
      },
      "guests": 0,
      "member": {
        "member_id": 126240882,
        "name": "Alexis Janvier"
      },
      "rsvp_id": 1601358106,
      "mtime": 1458804869000,
      "event": {
        "name": "Elm Paris #2",
        "id": "229812335",
        "time": 1462381200000,
        "event_url": "http://www.meetup.com/Meetup-Elm-Paris/events/229812335/"
      },
      "group": {
        "join_mode": "open",
        "created": 1462361786562,
        "group_lon": 2.3399999141693115,
        "id": 19539779,
        "urlname": "Meetup-Elm-Paris",
        "group_lat": 48.86000061035156
      }
    },
    {
      "venue": {
        "country": "fr",
        "localized_country_name": "France",
        "city": "Paris",
        "address_1": "86 rue de Charonne, 75011 Paris",
        "name": "Le Reset",
        "lon": 2.381123,
        "id": 19795162,
        "lat": 48.853733,
        "repinned": false
      },
      "created": 1459349636000,
      "response": "yes",
      "member_photo": {
        "highres_link": "http://photos1.meetupstatic.com/photos/member/4/a/c/4/highres_254119140.jpeg",
        "photo_id": 254119140,
        "photo_link": "http://photos1.meetupstatic.com/photos/member/4/a/c/4/member_254119140.jpeg",
        "thumb_link": "http://photos1.meetupstatic.com/photos/member/4/a/c/4/thumb_254119140.jpeg"
      },
      "guests": 0,
      "member": {
        "member_id": 44921182,
        "name": "Lionel Jamal"
      },
      "rsvp_id": 1602387741,
      "mtime": 1459349636000,
      "event": {
        "name": "Elm Paris #2",
        "id": "229812335",
        "time": 1462381200000,
        "event_url": "http://www.meetup.com/Meetup-Elm-Paris/events/229812335/"
      },
      "group": {
        "join_mode": "open",
        "created": 1462361786562,
        "group_lon": 2.3399999141693115,
        "id": 19539779,
        "urlname": "Meetup-Elm-Paris",
        "group_lat": 48.86000061035156
      }
    },
    {
      "venue": {
        "country": "fr",
        "localized_country_name": "France",
        "city": "Paris",
        "address_1": "86 rue de Charonne, 75011 Paris",
        "name": "Le Reset",
        "lon": 2.381123,
        "id": 19795162,
        "lat": 48.853733,
        "repinned": false
      },
      "created": 1458809650000,
      "response": "yes",
      "member_photo": {
        "highres_link": "http://photos3.meetupstatic.com/photos/member/5/c/d/c/highres_97943772.jpeg",
        "photo_id": 97943772,
        "photo_link": "http://photos1.meetupstatic.com/photos/member/5/c/d/c/member_97943772.jpeg",
        "thumb_link": "http://photos3.meetupstatic.com/photos/member/5/c/d/c/thumb_97943772.jpeg"
      },
      "guests": 0,
      "member": {
        "member_id": 80724412,
        "name": "Kevin Le Brun"
      },
      "rsvp_id": 1601362463,
      "mtime": 1458809650000,
      "event": {
        "name": "Elm Paris #2",
        "id": "229812335",
        "time": 1462381200000,
        "event_url": "http://www.meetup.com/Meetup-Elm-Paris/events/229812335/"
      },
      "group": {
        "join_mode": "open",
        "created": 1462361786562,
        "group_lon": 2.3399999141693115,
        "id": 19539779,
        "urlname": "Meetup-Elm-Paris",
        "group_lat": 48.86000061035156
      }
    },
    {
      "venue": {
        "country": "fr",
        "localized_country_name": "France",
        "city": "Paris",
        "address_1": "86 rue de Charonne, 75011 Paris",
        "name": "Le Reset",
        "lon": 2.381123,
        "id": 19795162,
        "lat": 48.853733,
        "repinned": false
      },
      "created": 1458757042000,
      "response": "yes",
      "member_photo": {
        "highres_link": "http://photos4.meetupstatic.com/photos/member/b/b/2/highres_242582994.jpeg",
        "photo_id": 242582994,
        "photo_link": "http://photos4.meetupstatic.com/photos/member/b/b/2/member_242582994.jpeg",
        "thumb_link": "http://photos2.meetupstatic.com/photos/member/b/b/2/thumb_242582994.jpeg"
      },
      "guests": 0,
      "member": {
        "member_id": 49973402,
        "name": "Anthony FLT"
      },
      "rsvp_id": 1601255982,
      "mtime": 1458757042000,
      "event": {
        "name": "Elm Paris #2",
        "id": "229812335",
        "time": 1462381200000,
        "event_url": "http://www.meetup.com/Meetup-Elm-Paris/events/229812335/"
      },
      "group": {
        "join_mode": "open",
        "created": 1462361786562,
        "group_lon": 2.3399999141693115,
        "id": 19539779,
        "urlname": "Meetup-Elm-Paris",
        "group_lat": 48.86000061035156
      }
    },
    {
      "venue": {
        "country": "fr",
        "localized_country_name": "France",
        "city": "Paris",
        "address_1": "86 rue de Charonne, 75011 Paris",
        "name": "Le Reset",
        "lon": 2.381123,
        "id": 19795162,
        "lat": 48.853733,
        "repinned": false
      },
      "created": 1461925889000,
      "response": "yes",
      "member_photo": {
        "highres_link": "http://photos1.meetupstatic.com/photos/member/1/e/a/b/highres_255307851.jpeg",
        "photo_id": 255307851,
        "photo_link": "http://photos3.meetupstatic.com/photos/member/1/e/a/b/member_255307851.jpeg",
        "thumb_link": "http://photos1.meetupstatic.com/photos/member/1/e/a/b/thumb_255307851.jpeg"
      },
      "guests": 0,
      "member": {
        "member_id": 188965940,
        "name": "Jonathan Morlet"
      },
      "rsvp_id": 1607500594,
      "mtime": 1461925889000,
      "event": {
        "name": "Elm Paris #2",
        "id": "229812335",
        "time": 1462381200000,
        "event_url": "http://www.meetup.com/Meetup-Elm-Paris/events/229812335/"
      },
      "group": {
        "join_mode": "open",
        "created": 1462361786562,
        "group_lon": 2.3399999141693115,
        "id": 19539779,
        "urlname": "Meetup-Elm-Paris",
        "group_lat": 48.86000061035156
      }
    }
  ],
  "meta": {
    "next": "https://api.meetup.com/2/rsvps?offset=1&sign=True&format=json&event_id=229812335&photo-host=public&page=20&fields=&order=event&desc=false",
    "method": "RSVPs v2",
    "total_count": 90,
    "link": "https://api.meetup.com/2/rsvps",
    "count": 20,
    "description": "Query for Event RSVPs by event",
    "lon": "",
    "title": "Meetup RSVPs v2",
    "url": "https://api.meetup.com/2/rsvps?offset=0&sign=True&format=json&event_id=229812335&photo-host=public&page=20&fields=&order=event&desc=false",
    "signed_url": "https://api.meetup.com/2/rsvps?offset=0&format=json&event_id=229812335&photo-host=public&page=20&fields=&order=event&desc=false&sig_id=52368652&sig=5d5578b2c291c9835678e7725f3c454948109133",
    "id": "",
    "updated": 1462361305000,
    "lat": ""
  }
}
